module bot

go 1.18

require github.com/go-python/gpython v0.2.1-0.20240226151148-149d52cd50c5

require (
	github.com/olekukonko/tablewriter v0.0.5
	github.com/pelletier/go-toml v1.9.4
)

require (
	github.com/mattn/go-runewidth v0.0.13 // indirect
	github.com/rivo/uniseg v0.3.4 // indirect
)
